{
  "success": true,
  "data": {
    "count": 41,
    "next": "http://tourlive-code-test-1586978259.ap-northeast-2.elb.amazonaws.com/v1/tours?page=3",
    "previous": "http://tourlive-code-test-1586978259.ap-northeast-2.elb.amazonaws.com/v1/tours",
    "results": [
      {
        "id": 21,
        "title": "\uc601\ud654 \ud5a5\uc218\ub97c \ub530\ub77c \ubc14\ub974\uc140\ub85c\ub098 \uace0\ub515 \uc9c0\uad6c \uac77\uae30",
        "rate": 5.0,
        "price": "2000.00",
        "created_at": "2020-09-14T04:56:43Z"
      },
      {
        "id": 20,
        "title": "\uc5ec\ud589 \uc791\uac00\uac00 \ub4e4\ub824\uc8fc\ub294 \ubc1c\ub80c\uc2dc\uc544 \uc5ec\ud589 \uc804, \uaf2d \ub4e3\uace0 \uac00\uc57c\ud558\ub294 \uc774\uc57c\uae30",
        "rate": 5.0,
        "price": "8000.00",
        "created_at": "2020-09-14T04:55:45Z"
      },
      {
        "id": 19,
        "title": "\uc2a4\ud398\uc778 \uac70\uc8fc 15\ub144. \uc2a4\ud398\uc778\uc2dc\uace8\ucd1d\uac01\uacfc \ud568\uaed8\ud558\ub294 \uac00\uc6b0\ub514 \ud22c\uc5b4",
        "rate": 5.0,
        "price": "6000.00",
        "created_at": "2020-09-14T04:55:23Z"
      },
      {
        "id": 18,
        "title": "\ubc1c\ub80c\uc2dc\uc544 A to Z! \ubc1c\ub80c\uc2dc\uc544 \ucabd\uc9d1\uac8c \ud22c\uc5b4",
        "rate": 5.0,
        "price": "4600.00",
        "created_at": "2020-09-14T04:54:45Z"
      },
      {
        "id": 17,
        "title": "\uc5ec\ud589 \uc791\uac00\uc758 \uc0ac\uc801\uc778 \ubc1c\ub80c\uc2dc\uc544 \ubbf8\uc2dd \uc5ec\ud589, \ub9db\uc9d1 \uc774\uc57c\uae30",
        "rate": 5.0,
        "price": "5000.00",
        "created_at": "2020-09-14T04:54:18Z"
      },
      {
        "id": 16,
        "title": "\ud568\uaed8 \uac78\uc5b4\uc694! \ud765\uacfc \uc5f4\uc815\uc774 \ub118\uce58\ub294 \ub3c4\uc2dc, \ubc1c\ub80c\uc2dc\uc544!",
        "rate": 3.0,
        "price": "6000.00",
        "created_at": "2020-09-14T04:53:47Z"
      },
      {
        "id": 15,
        "title": "\uc548\ub2ec\ub8e8\uc2dc\uc544\uc758 \ub85c\ub9e8\uc2a4, \ub860\ub2e4 \uc2dc\ub0b4 \ud22c\uc5b4",
        "rate": 5.0,
        "price": "4000.00",
        "created_at": "2020-09-14T04:52:56Z"
      },
      {
        "id": 14,
        "title": "\ub098\ub9cc \uc54c\uace0\uc2f6\uc740 \ub3c4\uc2dc, \ub9d0\ub77c\uac00\uc758 \uad6c\uc11d\uad6c\uc11d \uc2dc\ub0b4 \ud22c\uc5b4",
        "rate": 5.0,
        "price": "1000.00",
        "created_at": "2020-09-14T04:52:34Z"
      },
      {
        "id": 13,
        "title": "\ubc14\ub974\uc140\ub85c\ub098 \uc2dc\ud06c\ub9bf \uad6c \uc2dc\uac00\uc9c0 \ud22c\uc5b4 (\ub77c\ubc1c+\uace0\ub515+\ubcf4\ub978 \uc9c0\uad6c)",
        "rate": 3.0,
        "price": "9000.00",
        "created_at": "2020-09-14T04:52:10Z"
      },
      {
        "id": 12,
        "title": "\uc138\uace0\ube44\uc544 \uc54c\uce74\uc0ac\ub974 \ud22c\uc5b4",
        "rate": 5.0,
        "price": "8000.00",
        "created_at": "2020-09-14T04:51:43Z"
      },
      {
        "id": 11,
        "title": "\uc138\ube44\uc57c \ud1a0\ubc15\uc774 \uac74\ucd95\uac00\uc640 \ud568\uaed8\ud558\ub294 \uc27d\uace0 \uc7ac\ubbf8\uc788\ub294 \u2018\ub808\uc54c \uc54c\uce74\uc0ac\ub974\u2019 \ud22c\uc5b4",
        "rate": 3.0,
        "price": "30000.00",
        "created_at": "2020-09-14T04:51:05Z"
      },
      {
        "id": 10,
        "title": "\ubc14\ub974\uc140\ub85c\ub098 \uac00\uc774\ub4dc '\uc2a4\ub610'\uc640 \ud568\uaed8\ud558\ub294 \uc131\uac00\uc871 \uc131\ub2f9 \ub0b4\ubd80 \ud22c\uc5b4",
        "rate": 4.0,
        "price": "8000.00",
        "created_at": "2020-09-14T04:50:43Z"
      },
      {
        "id": 9,
        "title": "\ucf54\ub974\ub3c4\ubc14 \uba54\uc2a4\ub07c\ub530 \ud22c\uc5b4",
        "rate": 5.0,
        "price": "8000.00",
        "created_at": "2020-09-14T04:50:08Z"
      },
      {
        "id": 8,
        "title": "\uc138\uacc4 3\ub300 \uc131\ud654\ub97c \uc18c\uc7a5\ud55c \ud1a8\ub808\ub3c4 \uc0b0\ud1a0 \ud1a0\uba54 \uc131\ub2f9 \ud22c\uc5b4",
        "rate": 4.0,
        "price": "7000.00",
        "created_at": "2020-09-14T04:49:36Z"
      },
      {
        "id": 7,
        "title": "\uc138\ube44\uc57c\uc758 \uac74\ucd95\uac00\uc640 \ud568\uaed8\ud558\ub294 \uc774\ud574\ud558\uae30 \uc27d\uace0 \uc7ac\ubbf8\uc788\ub294 \uc138\ube44\uc57c \ub300\uc131\ub2f9",
        "rate": 5.0,
        "price": "5000.00",
        "created_at": "2020-09-14T04:49:11Z"
      },
      {
        "id": 6,
        "title": "\uc624\ud398\ub77c \uce74\ub974\ub9e8\uc758 \ubb34\ub300! \uc138\ube44\uc57c \uc655\ub9bd \ub2f4\ubc30\uacf5\uc7a5 (\ud604 \uc138\ube44\uc57c \ub300\ud559\uad50)",
        "rate": 5.0,
        "price": "3000.00",
        "created_at": "2020-09-14T04:48:17Z"
      },
      {
        "id": 5,
        "title": "\uc2a4\ud398\uc778 \uc815\uc2dd \uc778\uc99d \ud22c\uc5b4\uac00\uc774\ub4dc\uc640 \ud568\uaed8\ud558\ub294 \uc54c\ud568\ube0c\ub77c \uad81\uc804",
        "rate": 5.0,
        "price": "50000.00",
        "created_at": "2020-09-14T04:47:04Z"
      },
      {
        "id": 4,
        "title": "\uc2a4\ud398\uc778 \uc815\uc2dd \uc778\uc99d \ud22c\uc5b4\uac00\uc774\ub4dc\uc640 \ud568\uaed8\ud558\ub294 \uc54c\ud568\ube0c\ub77c \uad81\uc804",
        "rate": 5.0,
        "price": "50000.00",
        "created_at": "2020-09-14T04:47:04Z"
      },
      {
        "id": 3,
        "title": "\ud558\uc774\ub85c\uc640 \ud568\uaed8\ud558\ub294 \ud2f0\uc13c \ubcf4\ub974\ub124\ubbf8\uc0ac \ubbf8\uc220\uad00 \ud22c\uc5b4",
        "rate": 3.0,
        "price": "1111.00",
        "created_at": "2020-09-14T04:46:19Z"
      },
      {
        "id": 2,
        "title": "<\uc720\ub7fd\uc758 \uccab \ubc88\uc9f8 \ud0dc\uc591> \uc800\uc790\uc640 \ud568\uaed8 \ud558\ub294 \uc138\ube44\uc57c \uc2dc\ub0b4 \ud22c\uc5b4",
        "rate": 5.0,
        "price": "10000.00",
        "created_at": "2020-09-12T13:53:08Z"
      }
    ]
  },
  "message": null
}
